Prediction
…
ti_cv <-
  split_a1 %>%
  training() %>%
  vfold_cv(v = 10, repeats = 1)

## Test the `get_li_dm_1` function
ti_cv %>%
  {.$splits[[1]]} %>%
  {get_li_dm_1(., 0.9, 0.9)} %>%
  print()
#> $train
#> # A tibble: 3,136 x 5
#>    t_a.p     g.p   ph3 t_a.p.lp  g.p.lp
#>    <dbl>   <dbl> <dbl>    <dbl>   <dbl>
#>  1  1.31 -0.548  0.833     1.39 -1.12  
#>  2  1.18 -0.548  0.767     1.37 -1.12  
#>  3  1.24 -0.0121 0.467     1.37 -1.01  
#>  4  1.86  2.66   0.417     1.43 -0.358 
#>  5  1.93  0.0104 0.400     1.49 -0.319 
#>  6  1.82  0.968  0.417     1.54 -0.0853
#>  7  1.43 -0.548  0.467     1.53 -0.189 
#>  8  1.45 -0.548  0.317     1.53 -0.282 
#>  9  1.38 -0.548  0.183     1.53 -0.366 
#> 10  1.31 -0.548  0.533     1.51 -0.441 
#> # … with 3,126 more rows
#> 
#> $test
#> # A tibble: 349 x 5
#>    t_a.p    g.p   ph3 t_a.p.lp  g.p.lp
#>    <dbl>  <dbl> <dbl>    <dbl>   <dbl>
#>  1 1.19  -0.548 0.550     1.27 -1.12  
#>  2 1.53  -0.513 0.533     1.30 -1.11  
#>  3 1.17  -0.548 0.400     1.30 -1.11  
#>  4 1.22  -0.548 0.300     1.30 -1.11  
#>  5 1.65   1.64  0.600     1.34 -0.662 
#>  6 1.74   2.59  0.583     1.39 -0.0583
#>  7 1.97   1.15  0.467     1.46  0.187 
#>  8 1.50   1.76  0.583     1.48  0.533 
#>  9 1.59   0.619 0.633     1.50  0.609 
#> 10 0.791 -0.548 0.383     1.43  0.436 
#> # … with 339 more rows
…
