Model Predictive Control of Building Dynamics
…
1, Get Data

ti <- 
  read_csv(
    "~/GitHub/tidynamics/data/mpc.csv",
    skip = 1,
    col_names = c("timedate", "Y1", "Y2", "Ta", "Gv", "Ph1", "Ph2")
  ) %>%
  mutate(timedate = asP(.$timedate)) %>%
  mutate(t = asHours(.$timedate - .$timedate[1]))

ti %>%
  print()
#> # A tibble: 540 x 8
#>    timedate               Y1    Y2    Ta       Gv   Ph1   Ph2     t
#>    <dttm>              <dbl> <dbl> <dbl>    <dbl> <dbl> <dbl> <dbl>
#>  1 1983-10-10 15:20:00  24.5  27.4  11.8 0.007      1.5   1.5 0    
#>  2 1983-10-10 15:30:00  24.6  27.4  11.9 0.0053     1.5   1.5 0.167
#>  3 1983-10-10 15:40:00  24.7  27.3  12.1 0.0049     1.5   0   0.333
#>  4 1983-10-10 15:50:00  24.8  27.2  12.3 0.0051     1.5   0   0.5  
#>  5 1983-10-10 16:00:00  24.7  27.0  12.6 0.0011     1.5   1.5 0.667
#>  6 1983-10-10 16:10:00  24.6  26.9  12.7 0.001      1.5   0   0.833
#>  7 1983-10-10 16:20:00  24.8  26.8  12.7 0.0007     1.5   0   1    
#>  8 1983-10-10 16:30:00  24.8  26.7  12.7 0.0001     1.5   0   1.17 
#>  9 1983-10-10 16:40:00  24.9  26.9  12.7 0          1.5   1.5 1.33 
#> 10 1983-10-10 16:50:00  24.9  27.2  12.7 0.000600   1.5   1.5 1.5  
#> # … with 530 more rows
…
