Prediction
…
ti_cv <-
  split_a1 %>%
  training() %>%
  vfold_cv(v = 10, repeats = 1)

## Test the `get_li_dm_1` function
ti_cv %>%
  {.$splits[[1]]} %>%
  {get_li_dm_1(., 0.9, 0.9)} %>%
  print()
#> $train
#> # A tibble: 3,136 x 5
#>    t_a.p    g.p   ph3 t_a.p.lp g.p.lp
#>    <dbl>  <dbl> <dbl>    <dbl>  <dbl>
#>  1  1.27 -0.558 0.833     1.35 -1.15 
#>  2  1.21 -0.558 0.583     1.34 -1.15 
#>  3  1.16 -0.558 0.550     1.33 -1.15 
#>  4  1.33  0.397 0.333     1.34 -0.953
#>  5  1.78  0.948 0.417     1.39 -0.658
#>  6  1.70  0.248 4.67      1.44 -0.539
#>  7  1.41 -0.558 0.317     1.44 -0.600
#>  8  1.21 -0.558 0.633     1.43 -0.655
#>  9  1.16 -0.558 0.400     1.41 -0.705
#> 10  1.08 -0.558 1.10      1.38 -0.750
#> #  with 3,126 more rows
#> 
#> $test
#> # A tibble: 349 x 5
#>    t_a.p      g.p   ph3 t_a.p.lp  g.p.lp
#>    <dbl>    <dbl> <dbl>    <dbl>   <dbl>
#>  1 1.21  -0.0255  0.467     1.28 -0.0401
#>  2 1.89  -0.00314 0.400     1.35 -0.0355
#>  3 1.12  -0.119   0.283     1.34 -0.0554
#>  4 1.67   2.52    0.567     1.38  0.478 
#>  5 0.750  0.118   0.533     1.32  0.456 
#>  6 0.730 -0.558   0.383     1.27  0.296 
#>  7 1.62   0.527   0.467     1.31  0.377 
#>  8 1.24  -0.558   0.350     1.31  0.224 
#>  9 1.37  -0.246   0.767     1.33  0.152 
#> 10 1.63   2.20    0.717     1.37  0.598 
#> #  with 339 more rows
…
